Final Project Kaggle Competition
…
The tune grid function suggested me to ued the ridge regression (mixture = 0) and panlty = 0. The estimate for variables are below.

## # A tibble: 107 x 3
##    term                 estimate penalty
##    <chr>                   <dbl>   <dbl>
##  1 ExterQual_Fa          110314.       0
##  2 BldgType_Duplex        87687.       0
##  3 Neighborhood_StoneBr   54515.       0
##  4 Condition2_Artery      39105.       0
##  5 Neighborhood_NridgHt   38875.       0
##  6 Neighborhood_NoRidge   33972.       0
##  7 Street_Pave            32042.       0
##  8 Condition2_Norm        31501.       0
##  9 ExterQual_Ex           28905.       0
## 10 Neighborhood_Veenker   28812.       0
## #  with 97 more rows
…
